\relax 
\select@language{english}
\@writefile{toc}{\select@language{english}}
\@writefile{lof}{\select@language{english}}
\@writefile{lot}{\select@language{english}}
\citation{geretti}
\citation{risc16}
\citation{band}
\citation{cosse}
\@writefile{toc}{\contentsline {chapter}{\numberline {1}Overview}{1}}
\@writefile{lof}{\addvspace {10\p@ }}
\@writefile{lot}{\addvspace {10\p@ }}
\@writefile{lof}{\contentsline {figure}{\numberline {1.1}{\ignorespaces Schematic view of the full RISC-16 architecture.}}{1}}
\newlabel{fig:full_arch}{{1.1}{1}}
\citation{risc16}
\@writefile{toc}{\contentsline {chapter}{\numberline {2}Registers and buffers}{3}}
\@writefile{lof}{\addvspace {10\p@ }}
\@writefile{lot}{\addvspace {10\p@ }}
\@writefile{lof}{\contentsline {figure}{\numberline {2.1}{\ignorespaces UML interface of template module T\_Register.}}{3}}
\newlabel{fig:treg_uml}{{2.1}{3}}
\@writefile{lof}{\contentsline {figure}{\numberline {2.2}{\ignorespaces UML interface of module Control\_Word.}}{4}}
\newlabel{fig:cw_uml}{{2.2}{4}}
\@writefile{toc}{\contentsline {chapter}{\numberline {3}The Memory}{5}}
\@writefile{lof}{\addvspace {10\p@ }}
\@writefile{lot}{\addvspace {10\p@ }}
\@writefile{toc}{\contentsline {section}{\numberline {3.1}Modules used}{5}}
\@writefile{lof}{\contentsline {figure}{\numberline {3.1}{\ignorespaces UML interface of the Cell module.}}{5}}
\newlabel{fig:uml_cell}{{3.1}{5}}
\@writefile{lof}{\contentsline {figure}{\numberline {3.2}{\ignorespaces UML interface of the Decoder\_16 module.}}{6}}
\newlabel{fig:dec16_uml}{{3.2}{6}}
\@writefile{lof}{\contentsline {figure}{\numberline {3.3}{\ignorespaces UML interface of the And\_1 module.}}{6}}
\newlabel{fig:and1_uml}{{3.3}{6}}
\@writefile{lof}{\contentsline {figure}{\numberline {3.4}{\ignorespaces UML interface of the Mux\_16 module.}}{7}}
\newlabel{fig:mux16_uml}{{3.4}{7}}
\@writefile{toc}{\contentsline {section}{\numberline {3.2}General behaviour}{7}}
\@writefile{lof}{\contentsline {figure}{\numberline {3.5}{\ignorespaces UML interface of the Memory\_16b\_RISC module.}}{7}}
\newlabel{fig:mem_uml}{{3.5}{7}}
\@writefile{lof}{\contentsline {figure}{\numberline {3.6}{\ignorespaces Structure of the implemented RAM memory.}}{8}}
\newlabel{fig:mem_complete}{{3.6}{8}}
\@writefile{toc}{\contentsline {section}{\numberline {3.3}Tests performed}{8}}
\citation{mymem}
\@writefile{lof}{\contentsline {figure}{\numberline {3.7}{\ignorespaces Waveforms for the memory test with inputs 3,2.}}{9}}
\newlabel{fig:mrw1}{{3.7}{9}}
\@writefile{lof}{\contentsline {figure}{\numberline {3.8}{\ignorespaces Waveforms for the memory test with inputs 1,5.}}{10}}
\newlabel{fig:mrw2}{{3.8}{10}}
\@writefile{lof}{\contentsline {figure}{\numberline {3.9}{\ignorespaces Waveforms for the memory test with inputs 2,8.}}{10}}
\newlabel{fig:mrw3}{{3.9}{10}}
\citation{toplevel}
\@writefile{toc}{\contentsline {chapter}{\numberline {4}The Architecture}{11}}
\@writefile{lof}{\addvspace {10\p@ }}
\@writefile{lot}{\addvspace {10\p@ }}
\@writefile{toc}{\contentsline {section}{\numberline {4.1}Premise}{11}}
\@writefile{lof}{\contentsline {figure}{\numberline {4.1}{\ignorespaces Meaning of the instruction word bits of the eight available RISC-16 instructions.}}{11}}
\newlabel{fig:iset}{{4.1}{11}}
\@writefile{lof}{\contentsline {figure}{\numberline {4.2}{\ignorespaces Behavioural description of the eight available RISC-16 instructions.}}{12}}
\newlabel{fig:iset_exp}{{4.2}{12}}
\@writefile{toc}{\contentsline {section}{\numberline {4.2}Pipelining: outline}{13}}
\newlabel{sec:pipe}{{4.2}{13}}
\@writefile{lof}{\contentsline {figure}{\numberline {4.3}{\ignorespaces Register-transfer-level schematic view of the three-stage pipeline used.}}{14}}
\newlabel{fig:pipe}{{4.3}{14}}
\citation{risc16}
\@writefile{toc}{\contentsline {section}{\numberline {4.3}Pipelining: hazards}{15}}
\newlabel{sec:hazards}{{4.3}{15}}
\citation{mycpu}
\@writefile{toc}{\contentsline {chapter}{\numberline {5}Testing ARM source code}{21}}
\@writefile{lof}{\addvspace {10\p@ }}
\@writefile{lot}{\addvspace {10\p@ }}
\@writefile{toc}{\contentsline {section}{\numberline {5.1}The Fibonacci test}{21}}
\@writefile{lof}{\contentsline {figure}{\numberline {5.1}{\ignorespaces Waveforms for the first three instructions of the Fibonacci test with input index 4 and input address 8.}}{23}}
\newlabel{fig:fibo_wf1}{{5.1}{23}}
\@writefile{lof}{\contentsline {figure}{\numberline {5.2}{\ignorespaces Waveforms for the Fibonacci test with input index 4 and input address 8 (continued).}}{24}}
\newlabel{fig:fibo_wf2}{{5.2}{24}}
\@writefile{lof}{\contentsline {figure}{\numberline {5.3}{\ignorespaces Waveforms for the Fibonacci test with input index 4 and input address 8 (continued).}}{24}}
\newlabel{fig:fibo_wf3}{{5.3}{24}}
\@writefile{lof}{\contentsline {figure}{\numberline {5.4}{\ignorespaces Waveforms for the Fibonacci test with input index 4 and input address 8 - Unconditional jump.}}{25}}
\newlabel{fig:fibo_wf4}{{5.4}{25}}
\@writefile{lof}{\contentsline {figure}{\numberline {5.5}{\ignorespaces Waveforms for the Fibonacci test with input index 4 and input address 8 - Branching to the return label.}}{25}}
\newlabel{fig:fibo_wf5}{{5.5}{25}}
\@writefile{lof}{\contentsline {figure}{\numberline {5.6}{\ignorespaces Waveforms for the Fibonacci test with input index 4 and input address 8 - SW instruction and return.}}{26}}
\newlabel{fig:fibo_wf6}{{5.6}{26}}
\@writefile{toc}{\contentsline {section}{\numberline {5.2}The nested vector test}{26}}
\citation{mytoplevel}
\@writefile{lot}{\contentsline {table}{\numberline {5.1}{\ignorespaces Non-zero entries in data memory}}{27}}
\newlabel{table:mem_table}{{5.1}{27}}
\@writefile{lof}{\contentsline {figure}{\numberline {5.7}{\ignorespaces Waveforms for the nested-vector test with input addresses 3 and 13 - consecutive LW instructions.}}{28}}
\newlabel{fig:vect_wf1}{{5.7}{28}}
\@writefile{toc}{\contentsline {chapter}{\numberline {6}Conclusion}{31}}
\@writefile{lof}{\addvspace {10\p@ }}
\@writefile{lot}{\addvspace {10\p@ }}
\@writefile{toc}{\contentsline {section}{\numberline {6.1}Remarks}{31}}
\@writefile{toc}{\contentsline {section}{\numberline {6.2}Possible enhancements}{31}}
\bibcite{geretti}{1}
\bibcite{risc16}{2}
\bibcite{mymem}{3}
\bibcite{mycpu}{4}
\bibcite{band}{5}
\bibcite{cosse}{6}
\bibcite{toplevel}{7}
\bibcite{cpu}{8}
\bibcite{mytoplevel}{9}
